eQTL/pdQTL discordance investigation
…
## ✓ ggplot2 3.3.2     ✓ purrr   0.3.4
## ✓ tibble  3.0.3     ✓ dplyr   1.0.2
## ✓ tidyr   1.1.2     ✓ stringr 1.4.0
## ✓ readr   1.3.1     ✓ forcats 0.5.0

## ── Conflicts ────────────────────────────────────────────────────────────────────────────────────────────────────────────────────── tidyverse_conflicts() ──
## x dplyr::filter() masks stats::filter()
## x dplyr::lag()    masks stats::lag()

load eQTL and pdQTL tibble for chr 22

eQTL_vs_pdQTL_chr22 = read_csv("../TD20200925/eQTL_vs_pdQTL_chr22.csv", col_types = cols())
eQTL_vs_pdQTL_chr22

## # A tibble: 276,249 x 10
##    snps   gene statistic.raw pvalue.raw   FDR.raw beta.raw statistic.TD
##    <chr> <dbl>         <dbl>      <dbl>     <dbl>    <dbl>        <dbl>
##  1 snp_…  2547         -34.9  2.02e-113 2.75e-106    -1.44        -11.8
##  2 snp_…  2547         -33.9  5.33e-110 1.21e-103    -1.45        -11.8
##  3 snp_…  2547         -33.9  5.33e-110 1.21e-103    -1.45        -11.8
##  4 snp_…  2547         -33.9  5.33e-110 1.21e-103    -1.45        -11.8
##  5 snp_…  2547         -33.9  5.33e-110 1.21e-103    -1.45        -11.8
##  6 snp_…  2547         -33.9  5.33e-110 1.21e-103    -1.45        -11.8
##  7 snp_…  2547         -33.4  1.23e-108 1.39e-102    -1.44        -11.7
##  8 snp_…  2547         -33.4  1.23e-108 1.39e-102    -1.44        -11.7
##  9 snp_…  2547         -33.4  1.23e-108 1.39e-102    -1.44        -11.7
## 10 snp_…  2547         -33.4  1.23e-108 1.39e-102    -1.44        -11.7
## # … with 276,239 more rows, and 3 more variables: pvalue.TD <dbl>,
## #   FDR.TD <dbl>, beta.TD <dbl>
…
